  [
    {
      "id": 1,
      "title": "C&C Twitch Extension",
      "slug": "In progress Twitch extension for Casters and Cantrips D&D live streams",
      "description": "Web application utilizing React, Vite, and Material UI - The inspiration for this idea is for the viewer to be able to see character stats and information without leaving the live stream page",
      "gitLink": "https://gitlab.com/blowde00/casters-and-cantrips-extension",
      "vidLink": ""
    },
    {
      "id": 2,
      "title": "YardSale",
      "slug": "Full-stack project utilizing React, Java, Spring, AWS, and Kubernetes",
      "description": "Full-stack web application utilizing React, Java, Spring, AWS, and Kubernetes - The idea behind this application was to be a digital yardsale where people in a company could sell items and services to other employees. My team focused on the landing page and items page",
      "gitLink": "https://gitlab.com/bl-sdi-capstone",
      "vidLink": "https://bl-portfolio-bucket.s3.us-west-1.amazonaws.com/Capstone.mp4#t=2290"
    },
    {
      "id": 3,
      "title": "Gone Fishin'",
      "slug": "Terminal game written in Java",
      "description": "Terminal game written in Java - This was a fun little project that started by designing a database around a game concept then working backwards to create the game. It is by no means balanced gameplay, so watch out for those fish!",
      "gitLink": "https://gitlab.com/blowde00/gone-fishin",
      "vidLink": "https://bl-portfolio-bucket.s3.us-west-1.amazonaws.com/Java_Game.mp4#t=2210"
    },
    {
      "id": 4,
      "title": "D&D",
      "slug": "D&D resources and character generator concept",
      "description": "D&D resources and character generator concept - This was to prove out a concept for creating a new-player friendly D&D site that contained reference information as well as an easy to use character creator",
      "gitLink": "https://gitlab.com/blowde00/dungeons-and-donuts",
      "vidLink": "https://bl-portfolio-bucket.s3.us-west-1.amazonaws.com/React_Project.mp4#t=176"
    },
    {
      "id": 5,
      "title": "Journey",
      "slug": "Find outdoor activities based on chosen state and interest",
      "description": "Find outdoor activities based on chosen state and interest - The concept behind this site was to utilize an API available from the US Government that contained information about outdoor recreational areas across the country. This provided an interface to select a state and find the activities you want.",
      "gitLink": "https://gitlab.com/blowde00/journey",
      "vidLink": "https://bl-portfolio-bucket.s3.us-west-1.amazonaws.com/Web_Project.mp4#t=1590"
    },
    {
      "id": 6,
      "title": "Inbox",
      "slug": "Mock email inbox",
      "description": "",
      "gitLink": "https://gitlab.com/blowde00/react-inbox",
      "vidLink": ""
    },
    {
      "id": 7,
      "title": "Autos API",
      "slug": "Spring API that stores car information in Postgres",
      "description": "",
      "gitLink": "https://gitlab.com/blowde00/autos-api",
      "vidLink": ""
    },
    {
      "id": 8,
      "title": "Locations API",
      "slug": "Spring API that stores location and player information",
      "description": "",
      "gitLink": "https://gitlab.com/blowde00/locations-api",
      "vidLink": ""
    },
    {
      "id": 9,
      "title": "Ping",
      "slug": "Simple full-stack project to retrieve current date and time",
      "description": "",
      "gitLink": "https://gitlab.com/bl-ping",
      "vidLink": ""
    }
  ]